중앙선거관리위원회 선거구 코드 — code_precinct • krvote
…
선거구분
문자형, 2자리 숫자로 구성된 선거구분코드

data
티블, 선거코드, 선거명, 시도명, 구시군명 총 4 변수를 갖는 데이터프레임

    Source

    https://www.data.go.kr/

    Examples

code_precinct
#> # A tibble: 63 x 4
#>    선거코드 선거명               선거구분 data                
#>    <chr>    <chr>                <chr>    <list>              
#>  1 20021219 대통령선거           1        <tibble [1 x 4]>    
#>  2 20040415 국회의원선거         2        <tibble [243 x 4]>  
#>  3 20040415 비례대표국회의원선거 7        <tibble [1 x 4]>    
#>  4 20071219 대통령선거           1        <tibble [1 x 4]>    
#>  5 20080409 국회의원선거         2        <tibble [245 x 4]>  
#>  6 20080409 비례대표국회의원선거 7        <tibble [1 x 4]>    
#>  7 20100602 시·도지사선거        3        <tibble [16 x 4]>   
#>  8 20100602 구·시·군의장선거     4        <tibble [228 x 4]>  
#>  9 20100602 시·도의회의원선거    5        <tibble [680 x 4]>  
#> 10 20100602 구·시·군의회의원선거 6        <tibble [1,039 x 4]>
#> # ... with 53 more rows
…
